STOR 320 Tutorial on Tidy Data
…
    1   5   2018   1.5   75   52  

If you inspect the first 10 rows of tidy2.school, you should see that the variable CID is missing for student 4 from school 1 even though we know that this students unique district ID should be 1.4. Using the pipe %>%, combine all previous statements in an order where this will not occur. Create a tibble named final.tidy.school using a chain of commands that begins with calling the original tibble untidy.school

final.tidy.school = untidy.school %>%
                      rename('2017'=value2017,'2018'=value2018) %>%
                      pivot_longer('2017':'2018',names_to="Year",values_to="Value") %>%
                      mutate(Year=as.integer(Year)) %>%
                      pivot_wider(names_from=type,values_from=Value)  %>%
                      complete(school,student,Year) %>%
                      unite(CID,school,student,sep=".",remove=F)
final.tidy.school

## # A tibble: 800 x 6
##    CID   school student  Year Score Percentile
##    <chr>  <int>   <int> <int> <dbl>      <dbl>
##  1 1.1        1       1  2017    56         74
##  2 1.1        1       1  2018    78         79
##  3 1.2        1       2  2017    39         16
##  4 1.2        1       2  2018    72         25
##  5 1.3        1       3  2017    53         63
##  6 1.3        1       3  2018    NA         NA
##  7 1.4        1       4  2017    NA         NA
##  8 1.4        1       4  2018    NA         NA
##  9 1.5        1       5  2017    47         41
## 10 1.5        1       5  2018    75         52
## #  with 790 more rows
…
