STOR 320 Tutorial on Data Transformation 2
…
  #6
  filter(!(count<=10)) %>%
  
  #7
  ungroup() %>%
  
  #8
  mutate(proportion=count/sum(count))

flight.summary

## # A tibble: 370 x 9
##    origin dest  carrier count mean.acc var.acc mean.dist .groups proportion
##    <chr>  <chr> <chr>   <int>    <dbl>   <dbl>     <dbl> <chr>        <dbl>
##  1 EWR    ALB   EV        418     77.9  46873.       143 keep      0.00127 
##  2 EWR    ATL   DL       3122     46.9  21254.       746 keep      0.00952 
##  3 EWR    ATL   EV       1658     92.2  66850.       746 keep      0.00506 
##  4 EWR    ATL   UA        102     46.5   8893.       746 keep      0.000311
##  5 EWR    AUS   UA        664    163.  172017.      1504 keep      0.00203 
##  6 EWR    AUS   WN        295     27.8    950.      1504 keep      0.000900
##  7 EWR    AVL   EV        253     38.6   4009.       583 keep      0.000772
##  8 EWR    BDL   EV        405     88.0  98628.       116 keep      0.00124 
##  9 EWR    BNA   EV       1682     64.9  20108.       748 keep      0.00513 
## 10 EWR    BNA   WN        564     29.8   4550.       748 keep      0.00172 
## #  with 360 more rows
…
